module github.com/100sHoldings/100s-connamaratech-adapter

go 1.22

require (
	github.com/gorilla/mux v1.8.1
	github.com/stretchr/testify v1.9.0
	go.uber.org/mock v0.4.0
	google.golang.org/grpc v1.63.2
	google.golang.org/protobuf v1.33.0
)

require (
	golang.org/x/net v0.21.0 // indirect
	golang.org/x/sys v0.17.0 // indirect
	golang.org/x/text v0.14.0 // indirect
	google.golang.org/genproto/googleapis/rpc v0.0.0-20240227224415-6ceb2ff114de // indirect
)
